Statistical Computing (BSPH 140.776) - Tidytext and sentiment analysis
…
We see each line is in a character vector with elements of about 70 characters.

Similar to what we did above with Roger’s preface, we can turn the text of character strings into a data frame and then convert it into a one-row-per-line dataframe using the unnest_tokens() function.

pp_book_df <- tibble(text = prideprejudice) 
  
pp_book_df %>% 
  unnest_tokens(word, text, token="words")

# A tibble: 122,204 × 1
   word     
   <chr>    
 1 pride    
 2 and      
 3 prejudice
 4 by       
 5 jane     
 6 austen   
 7 chapter  
 8 1        
 9 it       
10 is       
# … with 122,194 more rows
…
tmp[5,1]

# A tibble: 1 × 1
  paragraph                                    
  <chr>                                        
1 of a good fortune, must be in want of a wife.

Note: what you name the output column, e.g. paragraph in this case, doesn’t affect it, it’s just good to give it a consistent name.

We could also divide it by sentence:

pp_book_df %>%
    unnest_tokens(output = sentence, input = text, token = "sentences") 

# A tibble: 15,545 × 1
   sentence                                                                  
   <chr>                                                                     
 1 "pride and prejudice"                                                     
 2 "by jane austen"                                                          
 3 "chapter 1"                                                               
 4 "it is a truth universally acknowledged, that a single man in possession" 
 5 "of a good fortune, must be in want of a wife."                           
 6 "however little known the feelings or views of such a man may be on his"  
 7 "first entering a neighbourhood, this truth is so well fixed in the minds"
 8 "of the surrounding families, that he is considered the rightful property"
 9 "of some one or other of their daughters."                                
10 "\"my dear mr."                                                           
# … with 15,535 more rows

Note: this is tricked by terms like “Mr.” and “Mrs.”

One neat trick is that we can unnest by two layers: paragraph and then word. This lets us keep track of which paragraph is which.

paragraphs <- 
  pp_book_df %>%
    unnest_tokens(output = paragraph, input = text, token = "paragraphs") %>%
    mutate(paragraph_number = row_number()) 

paragraphs

# A tibble: 10,721 × 2
   paragraph                                                             parag…¹
   <chr>                                                                   <int>
 1 "pride and prejudice"                                                       1
 2 "by jane austen"                                                            2
 3 "chapter 1"                                                                 3
 4 "it is a truth universally acknowledged, that a single man in posses…       4
 5 "of a good fortune, must be in want of a wife."                             5
 6 "however little known the feelings or views of such a man may be on …       6
 7 "first entering a neighbourhood, this truth is so well fixed in the …       7
 8 "of the surrounding families, that he is considered the rightful pro…       8
 9 "of some one or other of their daughters."                                  9
10 "\"my dear mr. bennet,\" said his lady to him one day, \"have you he…      10
# … with 10,711 more rows, and abbreviated variable name ¹​paragraph_number

Note: We use mutate() to annotate a paragraph number quantity to keep track of paragraphs in the original format.

paragraphs %>%
    unnest_tokens(output = word, input = paragraph)

# A tibble: 122,204 × 2
   paragraph_number word     
              <int> <chr>    
 1                1 pride    
 2                1 and      
 3                1 prejudice
 4                2 by       
 5                2 jane     
 6                2 austen   
 7                3 chapter  
 8                3 1        
 9                4 it       
10                4 is       
# … with 122,194 more rows
…
words_by_paragraph <- 
  paragraphs %>%
    unnest_tokens(word, paragraph) %>%
    anti_join(stop_words)

Joining, by = "word"

words_by_paragraph 

# A tibble: 37,246 × 2
   paragraph_number word        
              <int> <chr>       
 1                1 pride       
 2                1 prejudice   
 3                2 jane        
 4                2 austen      
 5                3 chapter     
 6                3 1           
 7                4 truth       
 8                4 universally 
 9                4 acknowledged
10                4 single      
# … with 37,236 more rows
…
We can do some data wrangling that keep tracks of the line number and chapter (using a regex) to find where all the chapters are.

original_books <- 
  austen_books() %>%
  group_by(book) %>%
  mutate(linenumber = row_number(),
         chapter = cumsum(str_detect(text, regex("^chapter [\\divxlc]",
                                                 ignore_case = TRUE)))) %>%
  ungroup()

original_books

# A tibble: 73,422 × 4
   text                    book                linenumber chapter
   <chr>                   <fct>                    <int>   <int>
 1 "SENSE AND SENSIBILITY" Sense & Sensibility          1       0
 2 ""                      Sense & Sensibility          2       0
 3 "by Jane Austen"        Sense & Sensibility          3       0
 4 ""                      Sense & Sensibility          4       0
 5 "(1811)"                Sense & Sensibility          5       0
 6 ""                      Sense & Sensibility          6       0
 7 ""                      Sense & Sensibility          7       0
 8 ""                      Sense & Sensibility          8       0
 9 ""                      Sense & Sensibility          9       0
10 "CHAPTER 1"             Sense & Sensibility         10       1
# … with 73,412 more rows

Finally, we can restructure it to a one-token-per-row format using the unnest_tokens() function and remove stop words using the anti_join() function in dplyr.

tidy_books <- original_books %>%
  unnest_tokens(word, text) %>% 
  anti_join(stop_words)

Joining, by = "word"

tidy_books

# A tibble: 217,609 × 4
   book                linenumber chapter word       
   <fct>                    <int>   <int> <chr>      
 1 Sense & Sensibility          1       0 sense      
 2 Sense & Sensibility          1       0 sensibility
 3 Sense & Sensibility          3       0 jane       
 4 Sense & Sensibility          3       0 austen     
 5 Sense & Sensibility          5       0 1811       
 6 Sense & Sensibility         10       1 chapter    
 7 Sense & Sensibility         10       1 1          
 8 Sense & Sensibility         13       1 family     
 9 Sense & Sensibility         13       1 dashwood   
10 Sense & Sensibility         13       1 settled    
# … with 217,599 more rows
…
The sentiments dataset

Inside the tidytext package are several sentiment lexicons. A few things to note:

The lexicons are based on unigrams (single words)

The lexicons contain many English words and the words are assigned scores for positive/negative sentiment, and also possibly emotions like joy, anger, sadness, and so forth

You can use the get_sentiments() function to extract a specific lexicon.

The nrc lexicon categorizes words into multiple categories of positive, negative, anger, anticipation, disgust, fear, joy, sadness, surprise, and trust

get_sentiments("nrc")

# A tibble: 13,872 × 2
   word        sentiment
   <chr>       <chr>    
 1 abacus      trust    
 2 abandon     fear     
 3 abandon     negative 
 4 abandon     sadness  
 5 abandoned   anger    
 6 abandoned   fear     
 7 abandoned   negative 
 8 abandoned   sadness  
 9 abandonment anger    
10 abandonment fear     
# … with 13,862 more rows

The bing lexicon categorizes words in a binary fashion into positive and negative categories

get_sentiments("bing")

# A tibble: 6,786 × 2
   word        sentiment
   <chr>       <chr>    
 1 2-faces     negative 
 2 abnormal    negative 
 3 abolish     negative 
 4 abominable  negative 
 5 abominably  negative 
 6 abominate   negative 
 7 abomination negative 
 8 abort       negative 
 9 aborted     negative 
10 aborts      negative 
# … with 6,776 more rows

The AFINN lexicon assigns words with a score that runs between -5 and 5, with negative scores indicating negative sentiment and positive scores indicating positive sentiment

get_sentiments("afinn")

# A tibble: 2,477 × 2
   word       value
   <chr>      <dbl>
 1 abandon       -2
 2 abandoned     -2
 3 abandons      -2
 4 abducted      -2
 5 abduction     -2
 6 abductions    -2
 7 abhor         -3
 8 abhorred      -3
 9 abhorrent     -3
10 abhors        -3
# … with 2,467 more rows
…
Now that we have our data in a tidy text format and we have learned about different types of lexicons in application for sentiment analysis, we can join the words together using a join function.

For example, what are the most common joy words in the book Emma? Here we will use the nrc lexicon and join the tidy_books dataset with the nrc_joy lexicon using the inner_join() function in dplyr.

nrc_joy <- get_sentiments("nrc") %>% 
  filter(sentiment == "joy")

tidy_books %>%
  filter(book == "Emma") %>%
  inner_join(nrc_joy) %>%
  count(word, sort = TRUE)

Joining, by = "word"

# A tibble: 297 × 2
   word          n
   <chr>     <int>
 1 friend      166
 2 hope        143
 3 happy       125
 4 love        117
 5 deal         92
 6 found        92
 7 happiness    76
 8 pretty       68
 9 true         66
10 comfort      65
# … with 287 more rows
…
Then we can count how many positive and negative words there are in each section of the books. We create an index to help us keep track of where we are in the narrative, which uses integer division, and counts up sections of 80 lines of text.

tidy_books %>%
  inner_join(get_sentiments("bing")) %>%
  count(book, index = linenumber %/% 80, sentiment) 

Joining, by = "word"

# A tibble: 1,840 × 4
   book                index sentiment     n
   <fct>               <dbl> <chr>     <int>
 1 Sense & Sensibility     0 negative     16
 2 Sense & Sensibility     0 positive     26
 3 Sense & Sensibility     1 negative     19
 4 Sense & Sensibility     1 positive     44
 5 Sense & Sensibility     2 negative     12
 6 Sense & Sensibility     2 positive     23
 7 Sense & Sensibility     3 negative     15
 8 Sense & Sensibility     3 positive     22
 9 Sense & Sensibility     4 negative     16
10 Sense & Sensibility     4 positive     29
# … with 1,830 more rows
…
Finally, we use spread() to have positive and negative counts in different columns, and then use mutate() to calculate a net sentiment (positive - negative).

jane_austen_sentiment <- 
  tidy_books %>%
  inner_join(get_sentiments("bing")) %>%
  count(book, index = linenumber %/% 80, sentiment) %>%
  spread(sentiment, n, fill = 0) %>%
  mutate(sentiment = positive - negative)

Joining, by = "word"

jane_austen_sentiment

# A tibble: 920 × 5
   book                index negative positive sentiment
   <fct>               <dbl>    <dbl>    <dbl>     <dbl>
 1 Sense & Sensibility     0       16       26        10
 2 Sense & Sensibility     1       19       44        25
 3 Sense & Sensibility     2       12       23        11
 4 Sense & Sensibility     3       15       22         7
 5 Sense & Sensibility     4       16       29        13
 6 Sense & Sensibility     5       16       39        23
 7 Sense & Sensibility     6       24       37        13
 8 Sense & Sensibility     7       22       39        17
 9 Sense & Sensibility     8       30       35         5
10 Sense & Sensibility     9       14       18         4
# … with 910 more rows
…
Perhaps the most widely used implementation of DTMs in R is the DocumentTermMatrix class in the tm package. Many available text mining datasets are provided in this format.

Let’s create a sparse with cast_sparse() function and then a dtm with the cast_dtm() function:

tidy_austen <- 
  austen_books() %>%
    mutate(line = row_number()) %>%
    unnest_tokens(word, text) %>%
    anti_join(stop_words)

Joining, by = "word"

tidy_austen

# A tibble: 217,609 × 3
   book                 line word       
   <fct>               <int> <chr>      
 1 Sense & Sensibility     1 sense      
 2 Sense & Sensibility     1 sensibility
 3 Sense & Sensibility     3 jane       
 4 Sense & Sensibility     3 austen     
 5 Sense & Sensibility     5 1811       
 6 Sense & Sensibility    10 chapter    
 7 Sense & Sensibility    10 1          
 8 Sense & Sensibility    13 family     
 9 Sense & Sensibility    13 dashwood   
10 Sense & Sensibility    13 settled    
# … with 217,599 more rows
…
