Statistical Computing (BSPH 140.776) - Managing data frames with the Tidyverse
…
Note in the above example and as mentioned earlier, that tibbles, by default, only print the first ten rows to screen. If you were to print chicago to screen, all 6940 rows would be displayed. When working with large data.frames, this default behavior can be incredibly frustrating. Using tibbles removes this frustration because of the default settings for tibble printing.

Additionally, you will note that the type of the variable is printed for each variable in the tibble. This helpful feature is another added bonus of tibbles relative to data.frame.

If you do want to see more rows from the tibble, there are a few options! First, the View() function in RStudio is incredibly helpful. The input to this function is the data.frame or tibble you would like to see. Specifically, View(chicago) would provide you, the viewer, with a scrollable view (in a new tab) of the complete dataset.

A second option is the fact that print() enables you to specify how many rows and columns you would like to display. Here, we again display the chicago data.frame as a tibble but specify that we’d only like to see 5 rows. The width = Inf argument specifies that we would like to see all the possible columns. Here, there are only 8, but for larger datasets, this can be helpful to specify.

as_tibble(chicago) %>% 
  print(n = 5, width = Inf)

# A tibble: 6,940 × 8
  city   tmpd  dptp date       pm25tmean2 pm10tmean2 o3tmean2 no2tmean2
  <chr> <dbl> <dbl> <date>          <dbl>      <dbl>    <dbl>     <dbl>
1 chic   31.5  31.5 1987-01-01         NA       34       4.25      20.0
2 chic   33    29.9 1987-01-02         NA       NA       3.30      23.2
3 chic   33    27.4 1987-01-03         NA       34.2     3.33      23.8
4 chic   29    28.6 1987-01-04         NA       47       4.38      30.4
5 chic   32    28.9 1987-01-05         NA       NA       4.75      30.3
# … with 6,935 more rows
…
