Statistical Computing (BSPH 140.776) - Project 1
…
# saves data only once (not each time you knit a R Markdown)
if(!file.exists(here("data","chocolate.RDS"))) {
  url_csv <- 'https://raw.githubusercontent.com/rfordatascience/tidytuesday/master/data/2022/2022-01-18/chocolate.csv'
  chocolate <- readr::read_csv(url_csv)
  
  # save the file to RDS objects
  saveRDS(chocolate, file= here("data","chocolate.RDS"))
}

Here we read in the .RDS dataset locally from our computing environment:

chocolate <- readRDS(here("data","chocolate.RDS"))
as_tibble(chocolate)

# A tibble: 2,530 × 10
     ref compan…¹ compa…² revie…³ count…⁴ speci…⁵ cocoa…⁶ ingre…⁷ most_…⁸ rating
   <dbl> <chr>    <chr>     <dbl> <chr>   <chr>   <chr>   <chr>   <chr>    <dbl>
 1  2454 5150     U.S.A.     2019 Tanzan… Kokoa … 76%     3- B,S… rich c…   3.25
 2  2458 5150     U.S.A.     2019 Domini… Zorzal… 76%     3- B,S… cocoa,…   3.5 
 3  2454 5150     U.S.A.     2019 Madaga… Bejofo… 76%     3- B,S… cocoa,…   3.75
 4  2542 5150     U.S.A.     2021 Fiji    Matasa… 68%     3- B,S… chewy,…   3   
 5  2546 5150     U.S.A.     2021 Venezu… Sur de… 72%     3- B,S… fatty,…   3   
 6  2546 5150     U.S.A.     2021 Uganda  Semuli… 80%     3- B,S… mildly…   3.25
 7  2542 5150     U.S.A.     2021 India   Anamal… 68%     3- B,S… milk b…   3.5 
 8   797 A. Morin France     2012 Bolivia Bolivia 70%     4- B,S… vegeta…   3.5 
 9   797 A. Morin France     2012 Peru    Peru    63%     4- B,S… fruity…   3.75
10  1011 A. Morin France     2013 Panama  Panama  70%     4- B,S… brief …   2.75
# … with 2,520 more rows, and abbreviated variable names ¹​company_manufacturer,
#   ²​company_location, ³​review_date, ⁴​country_of_bean_origin,
#   ⁵​specific_bean_origin_or_bar_name, ⁶​cocoa_percent, ⁷​ingredients,
#   ⁸​most_memorable_characteristics
…
# A tibble: 3 × 1
        x
    <dbl>
1 -1.17  
2  0.0494
3 -1.63  

## Create a new column that indicates whether the value of 'x' is positive or negative
dat %>%
        mutate(is_positive = case_when(
                x >= 0 ~ "Yes",
                x < 0 ~ "No"
        ))

# A tibble: 100 × 2
         x is_positive
     <dbl> <chr>      
 1 -1.17   No         
 2  0.0494 Yes        
 3 -1.63   No         
 4 -1.43   No         
 5 -0.934  No         
 6  0.618  Yes        
 7  0.877  Yes        
 8 -0.568  No         
 9 -0.459  No         
10  1.75   Yes        
# … with 90 more rows
…
