Statistical Computing (BSPH 140.776) - The ggplot2 plotting system: ggplot()
…
Because the individual-level data for this study are protected by various U.S. privacy laws, we cannot make those data available.

For the purposes of this lesson, we have simulated data that share many of the same features of the original data, but do not contain any of the actual measurements or values contained in the original dataset.

Example

We can look at the data quickly by reading it in as a tibble with read_csv() in the tidyverse package.

library(tidyverse)
library(here)
maacs <- read_csv(here("data", "bmi_pm25_no2_sim.csv"),
                  col_types = "nnci")
maacs

# A tibble: 517 × 4
   logpm25 logno2_new bmicat        NocturnalSympt
     <dbl>      <dbl> <chr>                  <int>
 1   1.25       1.18  normal weight              1
 2   1.12       1.55  overweight                 0
 3   1.93       1.43  normal weight              0
 4   1.37       1.77  overweight                 2
 5   0.775      0.765 normal weight              0
 6   1.49       1.11  normal weight              0
 7   2.16       1.43  normal weight              0
 8   1.65       1.40  normal weight              0
 9   1.55       1.81  normal weight              0
10   2.04       1.35  overweight                 3
# … with 507 more rows
…
Scatterplot with linear regression line

Here, we can see there appears to be a slight increasing trend, suggesting that higher levels of PM2.5 are associated with increased days with nocturnal symptoms.

Question

Let’s use the ggplot() function with our palmerpenguins dataset example and make a scatter plot with flipper_length_mm on the x-axis, bill_length_mm on the y-axis, colored by species, and a smoother by adding a linear regression.

# try it yourself

library(palmerpenguins)
penguins 

# A tibble: 344 × 8
   species island    bill_length_mm bill_depth_mm flipper_…¹ body_…² sex    year
   <fct>   <fct>              <dbl>         <dbl>      <int>   <int> <fct> <int>
 1 Adelie  Torgersen           39.1          18.7        181    3750 male   2007
 2 Adelie  Torgersen           39.5          17.4        186    3800 fema…  2007
 3 Adelie  Torgersen           40.3          18          195    3250 fema…  2007
 4 Adelie  Torgersen           NA            NA           NA      NA <NA>   2007
 5 Adelie  Torgersen           36.7          19.3        193    3450 fema…  2007
 6 Adelie  Torgersen           39.3          20.6        190    3650 male   2007
 7 Adelie  Torgersen           38.9          17.8        181    3625 fema…  2007
 8 Adelie  Torgersen           39.2          19.6        195    4675 male   2007
 9 Adelie  Torgersen           34.1          18.1        193    3475 <NA>   2007
10 Adelie  Torgersen           42            20.2        190    4250 <NA>   2007
# … with 334 more rows, and abbreviated variable names ¹​flipper_length_mm,
#   ²​body_mass_g
…
Modifying the theme for a plot

Question

Let’s take our palmerpenguins scatterplot from above and change out the theme to use theme_dark().

# try it yourself

library(palmerpenguins)
penguins 

# A tibble: 344 × 8
   species island    bill_length_mm bill_depth_mm flipper_…¹ body_…² sex    year
   <fct>   <fct>              <dbl>         <dbl>      <int>   <int> <fct> <int>
 1 Adelie  Torgersen           39.1          18.7        181    3750 male   2007
 2 Adelie  Torgersen           39.5          17.4        186    3800 fema…  2007
 3 Adelie  Torgersen           40.3          18          195    3250 fema…  2007
 4 Adelie  Torgersen           NA            NA           NA      NA <NA>   2007
 5 Adelie  Torgersen           36.7          19.3        193    3450 fema…  2007
 6 Adelie  Torgersen           39.3          20.6        190    3650 male   2007
 7 Adelie  Torgersen           38.9          17.8        181    3625 fema…  2007
 8 Adelie  Torgersen           39.2          19.6        195    4675 male   2007
 9 Adelie  Torgersen           34.1          18.1        193    3475 <NA>   2007
10 Adelie  Torgersen           42            20.2        190    4250 <NA>   2007
# … with 334 more rows, and abbreviated variable names ¹​flipper_length_mm,
#   ²​body_mass_g
…
