Statistical Computing (BSPH 140.776) - Python for R Users
…
Rows: 336776 Columns: 19
── Column specification ────────────────────────────────────────────────────────
Delimiter: ","
chr   (4): carrier, tailnum, origin, dest
dbl  (14): year, month, day, dep_time, sched_dep_time, dep_delay, arr_time, ...
dttm  (1): time_hour

ℹ Use `spec()` to retrieve the full column specification for this data.
ℹ Specify the column types or set `show_col_types = FALSE` to quiet this message.

flights

# A tibble: 16,566 × 3
   carrier dep_delay arr_delay
   <chr>       <dbl>     <dbl>
 1 UA             -4        12
 2 AA             -2         8
 3 MQ              8        32
 4 AA             -1        14
 5 AA             -4         4
 6 UA              9        20
 7 UA              2        21
 8 AA             -6       -12
 9 MQ             39        49
10 B6             -2        15
# … with 16,556 more rows
…
